project/pd0/verif/sim/verilator/test_pd/test_pd0.vcd
$version Generated by VerilatedVcd $end
$timescale 1ps $end
 $scope module TOP $end
  $scope module top $end
   $var wire 1 W clock $end
   $var wire 1 # reset $end
   $var wire 32 $ counter [31:0] $end
   $var wire 32 X errors [31:0] $end
   $var wire 1 % reset_done $end
   $var wire 1 & reset_neg $end
   $var wire 1 ' reset_reg $end
   $var wire 32 ( reset_counter [31:0] $end
   $var wire 1 ) assign_xor_op1 $end
   $var wire 1 * assign_xor_op2 $end
   $var wire 1 + assign_xor_res $end
   $var wire 2 , alu_sel [1:0] $end
   $var wire 32 - alu_op1 [31:0] $end
   $var wire 32 . alu_op2 [31:0] $end
   $var wire 32 / alu_res [31:0] $end
   $var wire 32 0 reg_rst_inp [31:0] $end
   $var wire 32 1 reg_rst_out [31:0] $end
   $var wire 32 2 tsp_op1 [31:0] $end
   $var wire 32 3 tsp_op2 [31:0] $end
   $var wire 32 4 tsp_out [31:0] $end
   $scope module clkg $end
    $var wire 1 W clk $end
    $var wire 1 # rst $end
    $var wire 32 5 counter [31:0] $end
   $upscope $end
   $scope module dut $end
    $var wire 1 W clk $end
    $var wire 1 # reset $end
    $scope module core $end
     $var wire 32 Y DWIDTH [31:0] $end
     $var wire 1 W clk $end
     $var wire 1 # reset $end
     $var wire 32 Z assign_T [31:0] $end
     $var wire 32 $ assign_TSP_op1_i [31:0] $end
     $var wire 32 6 assign_TSP_op2_i [31:0] $end
     $var wire 32 $ assign_alu_op1_i [31:0] $end
     $var wire 32 7 assign_alu_op2_i [31:0] $end
     $var wire 2 8 assign_alu_sel_i [1:0] $end
     $var wire 32 $ assign_reg_rst_in_i [31:0] $end
     $var wire 1 9 assign_xor_op1 $end
     $var wire 1 : assign_xor_op2 $end
     $var wire 1 ; assign_xor_res $end
     $var wire 32 < assign_TSP_res_o [31:0] $end
     $var wire 1 = assign_alu_neg_o $end
     $var wire 32 > assign_alu_res_o [31:0] $end
     $var wire 1 ? assign_alu_zero_o $end
     $var wire 32 @ assign_reg_rst_out_o [31:0] $end
     $scope module assign_alu $end
      $var wire 32 Y DWIDTH [31:0] $end
      $var wire 2 8 sel_i [1:0] $end
      $var wire 32 $ op1_i [31:0] $end
      $var wire 32 7 op2_i [31:0] $end
      $var wire 32 > res_o [31:0] $end
      $var wire 1 ? zero_o $end
      $var wire 1 = neg_o $end
     $upscope $end
     $scope module assign_reg $end
      $var wire 32 Y DWIDTH [31:0] $end
      $var wire 1 W clk $end
      $var wire 1 # rst $end
      $var wire 32 $ in_i [31:0] $end
      $var wire 32 @ out_o [31:0] $end
     $upscope $end
     $scope module assign_three_stage_pipeline $end
      $var wire 32 Y DWIDTH [31:0] $end
      $var wire 1 W clk $end
      $var wire 1 # rst $end
      $var wire 32 $ op1_i [31:0] $end
      $var wire 32 6 op2_i [31:0] $end
      $var wire 32 < res_o [31:0] $end
      $var wire 64 A inS1 [63:0] $end
      $var wire 64 C inAluAdd [63:0] $end
      $var wire 64 E inAluSub [63:0] $end
      $var wire 64 G inS2 [63:0] $end
      $var wire 32 I outAluAdd [31:0] $end
      $var wire 32 J outAluSub [31:0] $end
      $var wire 32 < outS3 [31:0] $end
      $scope module adder $end
       $var wire 32 Y DWIDTH [31:0] $end
       $var wire 2 [ sel_i [1:0] $end
       $var wire 32 K op1_i [31:0] $end
       $var wire 32 L op2_i [31:0] $end
       $var wire 32 I res_o [31:0] $end
       $var wire 1 M zero_o $end
       $var wire 1 N neg_o $end
      $upscope $end
      $scope module s1 $end
       $var wire 32 \ DWIDTH [31:0] $end
       $var wire 1 W clk $end
       $var wire 1 # rst $end
       $var wire 64 A in_i [63:0] $end
       $var wire 64 C out_o [63:0] $end
      $upscope $end
      $scope module s2 $end
       $var wire 32 \ DWIDTH [31:0] $end
       $var wire 1 W clk $end
       $var wire 1 # rst $end
       $var wire 64 G in_i [63:0] $end
       $var wire 64 E out_o [63:0] $end
      $upscope $end
      $scope module s3 $end
       $var wire 32 \ DWIDTH [31:0] $end
       $var wire 1 W clk $end
       $var wire 1 # rst $end
       $var wire 64 O in_i [63:0] $end
       $var wire 64 Q out_o [63:0] $end
      $upscope $end
      $scope module subber $end
       $var wire 32 Y DWIDTH [31:0] $end
       $var wire 2 ] sel_i [1:0] $end
       $var wire 32 S op1_i [31:0] $end
       $var wire 32 T op2_i [31:0] $end
       $var wire 32 J res_o [31:0] $end
       $var wire 1 U zero_o $end
       $var wire 1 V neg_o $end
      $upscope $end
     $upscope $end
     $scope module assign_xor_0 $end
      $var wire 1 9 op1_i $end
      $var wire 1 : op2_i $end
      $var wire 1 ; res_o $end
     $upscope $end
    $upscope $end
   $upscope $end
  $upscope $end
 $upscope $end
$enddefinitions $end


#0
1#
b00000000000000000000000000000000 $
0%
0&
0'
b00000000000000000000000000000000 (
0)
0*
0+
b00 ,
b00000000000000000000000000000000 -
b00000000000000000000000000000000 .
b00000000000000000000000000000000 /
b00000000000000000000000000000000 0
b00000000000000000000000000000000 1
b00000000000000000000000000000000 2
b00000000000000000000000000000000 3
b00000000000000000000000000000000 4
b00000000000000000000000000000000 5
b00000000000000000000000000000000 6
b00000000000000000000000000000000 7
b00 8
09
0:
0;
b00000000000000000000000000000000 <
0=
b00000000000000000000000000000000 >
1?
b00000000000000000000000000000000 @
b0000000000000000000000000000000000000000000000000000000000000000 A
b0000000000000000000000000000000000000000000000000000000000000000 C
b0000000000000000000000000000000000000000000000000000000000000000 E
b0000000000000000000000000000000000000000000000000000000000000000 G
b00000000000000000000000000000000 I
b00000000000000000000000000000000 J
b00000000000000000000000000000000 K
b00000000000000000000000000000000 L
1M
0N
b0000000000000000000000000000000000000000000000000000000000000000 O
b0000000000000000000000000000000000000000000000000000000000000000 Q
b00000000000000000000000000000000 S
b00000000000000000000000000000000 T
1U
0V
0W
b00000000000000000000000000000000 X
b00000000000000000000000000100000 Y
b00000000000000000000000000000000 Z
b00 [
b00000000000000000000000001000000 \
b01 ]
#1
b00000000000000000000000000000001 $
1'
b00000000000000000000000000000001 5
b00100000000000000000000000000000 6
b00100000000000000000000000000000 7
b01 8
19
1;
b11100000000000000000000000000001 >
0?
b0010000000000000000000000000000000000000000000000000000000000001 A
b0000000000000000000000000000000000000000000000000000000000000001 G
1W
#2
0W
#3
b00000000000000000000000000000010 $
1)
1+
b01 ,
b00000000000000000000000000000001 -
b00100000000000000000000000000000 .
b11100000000000000000000000000001 /
b00000000000000000000000000000001 0
b00000000000000000000000000000001 2
b00100000000000000000000000000000 3
b00000000000000000000000000000010 5
b10000000000000000000000000000000 6
b00010000000000000000000000000000 7
b10 8
09
1:
b00000000000000000000000000000000 >
b1000000000000000000000000000000000000000000000000000000000000010 A
b0000000000000000000000000000000000000000000000000000000000000010 G
1W
#4
0W
#5
b00000000000000000000000000000011 $
0)
1*
b10 ,
b00000000000000000000000000000010 -
b00010000000000000000000000000000 .
b00000000000000000000000000000000 /
b00000000000000000000000000000010 0
b00000000000000000000000000000010 2
b10000000000000000000000000000000 3
b00000000000000000000000000000011 5
b10100000000000000000000000000000 6
b00110000000000000000000000000000 7
b11 8
19
0;
b00110000000000000000000000000011 >
b1010000000000000000000000000000000000000000000000000000000000011 A
b0000000000000000000000000000000000000000000000000000000000000011 G
1W
#6
0W
#7
b00000000000000000000000000000100 $
1)
0+
b11 ,
b00000000000000000000000000000011 -
b00110000000000000000000000000000 .
b00110000000000000000000000000011 /
b00000000000000000000000000000011 0
b00000000000000000000000000000011 2
b10100000000000000000000000000000 3
b00000000000000000000000000000100 5
b01000000000000000000000000000000 6
b10000000000000000000000000000000 7
b00 8
09
0:
b10000000000000000000000000000100 >
b0100000000000000000000000000000000000000000000000000000000000100 A
b0000000000000000000000000000000000000000000000000000000000000100 G
1W
#8
0W
#9
b00000000000000000000000000000101 $
0)
0*
b00 ,
b00000000000000000000000000000100 -
b10000000000000000000000000000000 .
b10000000000000000000000000000100 /
b00000000000000000000000000000100 0
b00000000000000000000000000000100 2
b01000000000000000000000000000000 3
b00000000000000000000000000000101 5
b01100000000000000000000000000000 6
b10100000000000000000000000000000 7
b01 8
19
1;
b01100000000000000000000000000101 >
b0110000000000000000000000000000000000000000000000000000000000101 A
b0000000000000000000000000000000000000000000000000000000000000101 G
1W
#10
0W
#11
0#
b00000000000000000000000000000110 $
1)
1+
b01 ,
b00000000000000000000000000000101 -
b10100000000000000000000000000000 .
b01100000000000000000000000000101 /
b00000000000000000000000000000101 0
b00000000000000000000000000000101 2
b01100000000000000000000000000000 3
b00000000000000000000000000000110 5
b11000000000000000000000000000000 6
b10010000000000000000000000000000 7
b10 8
09
1:
b00000000000000000000000000000000 >
b1100000000000000000000000000000000000000000000000000000000000110 A
b0000000000000000000000000000000000000000000000000000000000000110 G
1W
#12
0W
#13
b00000000000000000000000000000111 $
1&
0'
b00000000000000000000000000000001 (
0)
1*
b10 ,
b00000000000000000000000000000110 -
b10010000000000000000000000000000 .
b00000000000000000000000000000000 /
b00000000000000000000000000000110 0
b00000000000000000000000000000110 2
b11000000000000000000000000000000 3
b00000000000000000000000000000111 5
b11100000000000000000000000000000 6
b10110000000000000000000000000000 7
b11 8
19
0;
b10110000000000000000000000000111 >
b00000000000000000000000000000110 @
b1110000000000000000000000000000000000000000000000000000000000111 A
b1100000000000000000000000000000000000000000000000000000000000110 C
b0000000000000000000000000000000000000000000000000000000000000110 E
b0110000000000000000000000000001100000000000000000000000000000111 G
b11000000000000000000000000000110 I
b11111111111111111111111111111010 J
b11000000000000000000000000000000 K
b00000000000000000000000000000110 L
0M
b0000000000000000000000000000000011111111111111111111111111111010 O
b00000000000000000000000000000110 T
0U
1V
1W
#14
0W
#15
b00000000000000000000000000001000 $
b00000000000000000000000000000010 (
1)
0+
b11 ,
b00000000000000000000000000000111 -
b10110000000000000000000000000000 .
b10110000000000000000000000000111 /
b00000000000000000000000000000111 0
b00000000000000000000000000000110 1
b00000000000000000000000000000111 2
b11100000000000000000000000000000 3
b00000000000000000000000000001000 5
b00000000000000000000000000000001 6
b01000000000000000000000000000000 7
b00 8
09
0:
b11111111111111111111111111111010 <
1=
b01000000000000000000000000001000 >
b00000000000000000000000000000111 @
b0000000000000000000000000000000100000000000000000000000000001000 A
b1110000000000000000000000000000000000000000000000000000000000111 C
b0110000000000000000000000000001100000000000000000000000000000111 E
b0111000000000000000000000000001110000000000000000000000000001000 G
b11100000000000000000000000000111 I
b01011111111111111111111111111100 J
b11100000000000000000000000000000 K
b00000000000000000000000000000111 L
b0000000000000000000000000000000001011111111111111111111111111100 O
b0000000000000000000000000000000011111111111111111111111111111010 Q
b01100000000000000000000000000011 S
b00000000000000000000000000000111 T
1W
#16
0W
#17
b00000000000000000000000000001001 $
b00000000000000000000000000000011 (
0)
0*
b00 ,
b00000000000000000000000000001000 -
b01000000000000000000000000000000 .
b01000000000000000000000000001000 /
b00000000000000000000000000001000 0
b00000000000000000000000000000111 1
b00000000000000000000000000001000 2
b00000000000000000000000000000001 3
b11111111111111111111111111111010 4
b00000000000000000000000000001001 5
b00100000000000000000000000000001 6
b01100000000000000000000000000000 7
b01 8
19
1;
b01011111111111111111111111111100 <
b10100000000000000000000000001001 >
b00000000000000000000000000001000 @
b0010000000000000000000000000000100000000000000000000000000001001 A
b0000000000000000000000000000000100000000000000000000000000001000 C
b0111000000000000000000000000001110000000000000000000000000001000 E
b0000000000000000000000000000010010000000000000000000000000001001 G
b00000000000000000000000000001001 I
b11101111111111111111111111111011 J
b00000000000000000000000000000001 K
b00000000000000000000000000001000 L
1N
b0000000000000000000000000000000011101111111111111111111111111011 O
b0000000000000000000000000000000001011111111111111111111111111100 Q
b01110000000000000000000000000011 S
b10000000000000000000000000001000 T
1W
#18
0W
#19
b00000000000000000000000000001010 $
1%
b00000000000000000000000000000100 (
1)
1+
b01 ,
b00000000000000000000000000001001 -
b01100000000000000000000000000000 .
b10100000000000000000000000001001 /
b00000000000000000000000000001001 0
b00000000000000000000000000001000 1
b00000000000000000000000000001001 2
b00100000000000000000000000000001 3
b01011111111111111111111111111100 4
b00000000000000000000000000001010 5
b10000000000000000000000000000001 6
b01010000000000000000000000000000 7
b10 8
09
1:
b11101111111111111111111111111011 <
0=
b00000000000000000000000000000000 >
b00000000000000000000000000001001 @
b1000000000000000000000000000000100000000000000000000000000001010 A
b0010000000000000000000000000000100000000000000000000000000001001 C
b0000000000000000000000000000010010000000000000000000000000001001 E
b0001000000000000000000000000010100000000000000000000000000001010 G
b00100000000000000000000000001010 I
b01111111111111111111111111111011 J
b00100000000000000000000000000001 K
b00000000000000000000000000001001 L
b0000000000000000000000000000000001111111111111111111111111111011 O
b0000000000000000000000000000000011101111111111111111111111111011 Q
b00000000000000000000000000000100 S
b10000000000000000000000000001001 T
1W
#20
0W
#21
b00000000000000000000000000001011 $
b00000000000000000000000000000101 (
0)
1*
b10 ,
b00000000000000000000000000001010 -
b01010000000000000000000000000000 .
b00000000000000000000000000000000 /
b00000000000000000000000000001010 0
b00000000000000000000000000001001 1
b00000000000000000000000000001010 2
b10000000000000000000000000000001 3
b11101111111111111111111111111011 4
b00000000000000000000000000001011 5
b10100000000000000000000000000001 6
b01110000000000000000000000000000 7
b11 8
19
0;
b01111111111111111111111111111011 <
1=
b01110000000000000000000000001011 >
b00000000000000000000000000001010 @
b1010000000000000000000000000000100000000000000000000000000001011 A
b1000000000000000000000000000000100000000000000000000000000001010 C
b0001000000000000000000000000010100000000000000000000000000001010 E
b0100000000000000000000000000010110000000000000000000000000001011 G
b10000000000000000000000000001011 I
b00001111111111111111111111111011 J
b10000000000000000000000000000001 K
b00000000000000000000000000001010 L
b0000000000000000000000000000000000001111111111111111111111111011 O
b0000000000000000000000000000000001111111111111111111111111111011 Q
b00010000000000000000000000000101 S
b00000000000000000000000000001010 T
1W
#22
0W
#23
b00000000000000000000000000001100 $
b00000000000000000000000000000110 (
1)
0+
b11 ,
b00000000000000000000000000001011 -
b01110000000000000000000000000000 .
b01110000000000000000000000001011 /
b00000000000000000000000000001011 0
b00000000000000000000000000001010 1
b00000000000000000000000000001011 2
b10100000000000000000000000000001 3
b01111111111111111111111111111011 4
b00000000000000000000000000001100 5
b01000000000000000000000000000001 6
b11000000000000000000000000000000 7
b00 8
09
0:
b00001111111111111111111111111011 <
b11000000000000000000000000001100 >
b00000000000000000000000000001011 @
b0100000000000000000000000000000100000000000000000000000000001100 A
b1010000000000000000000000000000100000000000000000000000000001011 C
b0100000000000000000000000000010110000000000000000000000000001011 E
b0101000000000000000000000000011000000000000000000000000000001100 G
b10100000000000000000000000001100 I
b10111111111111111111111111111010 J
b10100000000000000000000000000001 K
b00000000000000000000000000001011 L
b0000000000000000000000000000000010111111111111111111111111111010 O
b0000000000000000000000000000000000001111111111111111111111111011 Q
b01000000000000000000000000000101 S
b10000000000000000000000000001011 T
1W
#24
0W
#25
b00000000000000000000000000001101 $
b00000000000000000000000000000111 (
0)
0*
b00 ,
b00000000000000000000000000001100 -
b11000000000000000000000000000000 .
b11000000000000000000000000001100 /
b00000000000000000000000000001100 0
b00000000000000000000000000001011 1
b00000000000000000000000000001100 2
b01000000000000000000000000000001 3
b00001111111111111111111111111011 4
b00000000000000000000000000001101 5
b01100000000000000000000000000001 6
b11100000000000000000000000000000 7
b01 8
19
1;
b10111111111111111111111111111010 <
b00100000000000000000000000001101 >
b00000000000000000000000000001100 @
b0110000000000000000000000000000100000000000000000000000000001101 A
b0100000000000000000000000000000100000000000000000000000000001100 C
b0101000000000000000000000000011000000000000000000000000000001100 E
b0010000000000000000000000000011010000000000000000000000000001101 G
b01000000000000000000000000001101 I
b01001111111111111111111111111010 J
b01000000000000000000000000000001 K
b00000000000000000000000000001100 L
b0000000000000000000000000000000001001111111111111111111111111010 O
b0000000000000000000000000000000010111111111111111111111111111010 Q
b01010000000000000000000000000110 S
b00000000000000000000000000001100 T
1W
#26
0W
#27
b00000000000000000000000000001110 $
b00000000000000000000000000001000 (
1)
1+
b01 ,
b00000000000000000000000000001101 -
b11100000000000000000000000000000 .
b00100000000000000000000000001101 /
b00000000000000000000000000001101 0
b00000000000000000000000000001100 1
b00000000000000000000000000001101 2
b01100000000000000000000000000001 3
b10111111111111111111111111111010 4
b00000000000000000000000000001110 5
b11000000000000000000000000000001 6
b11010000000000000000000000000000 7
b10 8
09
1:
b01001111111111111111111111111010 <
0=
b00000000000000000000000000000000 >
b00000000000000000000000000001101 @
b1100000000000000000000000000000100000000000000000000000000001110 A
b0110000000000000000000000000000100000000000000000000000000001101 C
b0010000000000000000000000000011010000000000000000000000000001101 E
b0011000000000000000000000000011100000000000000000000000000001110 G
b01100000000000000000000000001110 I
b10011111111111111111111111111001 J
b01100000000000000000000000000001 K
b00000000000000000000000000001101 L
b0000000000000000000000000000000010011111111111111111111111111001 O
b0000000000000000000000000000000001001111111111111111111111111010 Q
b00100000000000000000000000000110 S
b10000000000000000000000000001101 T
1W
#28
0W
#29
b00000000000000000000000000001111 $
b00000000000000000000000000001001 (
0)
1*
b10 ,
b00000000000000000000000000001110 -
b11010000000000000000000000000000 .
b00000000000000000000000000000000 /
b00000000000000000000000000001110 0
b00000000000000000000000000001101 1
b00000000000000000000000000001110 2
b11000000000000000000000000000001 3
b01001111111111111111111111111010 4
b00000000000000000000000000001111 5
b11100000000000000000000000000001 6
b11110000000000000000000000000000 7
b11 8
19
0;
b10011111111111111111111111111001 <
1=
b11110000000000000000000000001111 >
b00000000000000000000000000001110 @
b1110000000000000000000000000000100000000000000000000000000001111 A
b1100000000000000000000000000000100000000000000000000000000001110 C
b0011000000000000000000000000011100000000000000000000000000001110 E
b0110000000000000000000000000011110000000000000000000000000001111 G
b11000000000000000000000000001111 I
b00101111111111111111111111111001 J
b11000000000000000000000000000001 K
b00000000000000000000000000001110 L
b0000000000000000000000000000000000101111111111111111111111111001 O
b0000000000000000000000000000000010011111111111111111111111111001 Q
b00110000000000000000000000000111 S
b00000000000000000000000000001110 T
1W
#30
0W
#31
b00000000000000000000000000010000 $
b00000000000000000000000000001010 (
1)
0+
b11 ,
b00000000000000000000000000001111 -
b11110000000000000000000000000000 .
b11110000000000000000000000001111 /
b00000000000000000000000000001111 0
b00000000000000000000000000001110 1
b00000000000000000000000000001111 2
b11100000000000000000000000000001 3
b10011111111111111111111111111001 4
b00000000000000000000000000010000 5
b00000000000000000000000000000010 6
b00000000000000000000000000000001 7
b00 8
09
0:
b00101111111111111111111111111001 <
0=
b00000000000000000000000000010001 >
b00000000000000000000000000001111 @
b0000000000000000000000000000001000000000000000000000000000010000 A
b1110000000000000000000000000000100000000000000000000000000001111 C
b0110000000000000000000000000011110000000000000000000000000001111 E
b0111000000000000000000000000100000000000000000000000000000010000 G
b11100000000000000000000000010000 I
b11011111111111111111111111111000 J
b11100000000000000000000000000001 K
b00000000000000000000000000001111 L
0N
b0000000000000000000000000000000011011111111111111111111111111000 O
b0000000000000000000000000000000000101111111111111111111111111001 Q
b01100000000000000000000000000111 S
b10000000000000000000000000001111 T
1W
#32
0W
#33
b00000000000000000000000000010001 $
b00000000000000000000000000001011 (
0)
0*
b00 ,
b00000000000000000000000000010000 -
b00000000000000000000000000000001 .
b00000000000000000000000000010001 /
b00000000000000000000000000010000 0
b00000000000000000000000000001111 1
b00000000000000000000000000010000 2
b00000000000000000000000000000010 3
b00101111111111111111111111111001 4
b00000000000000000000000000010001 5
b00100000000000000000000000000010 6
b00100000000000000000000000000001 7
b01 8
19
1;
b11011111111111111111111111111000 <
b11100000000000000000000000010000 >
b00000000000000000000000000010000 @
b0010000000000000000000000000001000000000000000000000000000010001 A
b0000000000000000000000000000001000000000000000000000000000010000 C
b0111000000000000000000000000100000000000000000000000000000010000 E
b0000000000000000000000000000100100000000000000000000000000010001 G
b00000000000000000000000000010010 I
b01101111111111111111111111111000 J
b00000000000000000000000000000010 K
b00000000000000000000000000010000 L
b0000000000000000000000000000000001101111111111111111111111111000 O
b0000000000000000000000000000000011011111111111111111111111111000 Q
b01110000000000000000000000001000 S
b00000000000000000000000000010000 T
1W
#34
0W
#35
b00000000000000000000000000010010 $
b00000000000000000000000000001100 (
1)
1+
b01 ,
b00000000000000000000000000010001 -
b00100000000000000000000000000001 .
b11100000000000000000000000010000 /
b00000000000000000000000000010001 0
b00000000000000000000000000010000 1
b00000000000000000000000000010001 2
b00100000000000000000000000000010 3
b11011111111111111111111111111000 4
b00000000000000000000000000010010 5
b10000000000000000000000000000010 6
b00010000000000000000000000000001 7
b10 8
09
1:
b01101111111111111111111111111000 <
b00000000000000000000000000000000 >
b00000000000000000000000000010001 @
b1000000000000000000000000000001000000000000000000000000000010010 A
b0010000000000000000000000000001000000000000000000000000000010001 C
b0000000000000000000000000000100100000000000000000000000000010001 E
b0001000000000000000000000000100110000000000000000000000000010010 G
b00100000000000000000000000010011 I
b11111111111111111111111111111000 J
b00100000000000000000000000000010 K
b00000000000000000000000000010001 L
b0000000000000000000000000000000011111111111111111111111111111000 O
b0000000000000000000000000000000001101111111111111111111111111000 Q
b00000000000000000000000000001001 S
b00000000000000000000000000010001 T
1W
#36
0W
#37
b00000000000000000000000000010011 $
b00000000000000000000000000001101 (
0)
1*
b10 ,
b00000000000000000000000000010010 -
b00010000000000000000000000000001 .
b00000000000000000000000000000000 /
b00000000000000000000000000010010 0
b00000000000000000000000000010001 1
b00000000000000000000000000010010 2
b10000000000000000000000000000010 3
b01101111111111111111111111111000 4
b00000000000000000000000000010011 5
b10100000000000000000000000000010 6
b00110000000000000000000000000001 7
b11 8
19
0;
b11111111111111111111111111111000 <
b00110000000000000000000000010011 >
b00000000000000000000000000010010 @
b1010000000000000000000000000001000000000000000000000000000010011 A
b1000000000000000000000000000001000000000000000000000000000010010 C
b0001000000000000000000000000100110000000000000000000000000010010 E
b0100000000000000000000000000101000000000000000000000000000010011 G
b10000000000000000000000000010100 I
b10001111111111111111111111110111 J
b10000000000000000000000000000010 K
b00000000000000000000000000010010 L
b0000000000000000000000000000000010001111111111111111111111110111 O
b0000000000000000000000000000000011111111111111111111111111111000 Q
b00010000000000000000000000001001 S
b10000000000000000000000000010010 T
0V
1W
#38
0W
#39
b00000000000000000000000000010100 $
b00000000000000000000000000001110 (
1)
0+
b11 ,
b00000000000000000000000000010011 -
b00110000000000000000000000000001 .
b00110000000000000000000000010011 /
b00000000000000000000000000010011 0
b00000000000000000000000000010010 1
b00000000000000000000000000010011 2
b10100000000000000000000000000010 3
b11111111111111111111111111111000 4
b00000000000000000000000000010100 5
b01000000000000000000000000000010 6
b10000000000000000000000000000001 7
b00 8
09
0:
b10001111111111111111111111110111 <
b10000000000000000000000000010101 >
b00000000000000000000000000010011 @
b0100000000000000000000000000001000000000000000000000000000010100 A
b1010000000000000000000000000001000000000000000000000000000010011 C
b0100000000000000000000000000101000000000000000000000000000010011 E
b0101000000000000000000000000101010000000000000000000000000010100 G
b10100000000000000000000000010101 I
b00111111111111111111111111110111 J
b10100000000000000000000000000010 K
b00000000000000000000000000010011 L
b0000000000000000000000000000000000111111111111111111111111110111 O
b0000000000000000000000000000000010001111111111111111111111110111 Q
b01000000000000000000000000001010 S
b00000000000000000000000000010011 T
1W
#40
0W
#41
b00000000000000000000000000010101 $
b00000000000000000000000000001111 (
0)
0*
b00 ,
b00000000000000000000000000010100 -
b10000000000000000000000000000001 .
b10000000000000000000000000010101 /
b00000000000000000000000000010100 0
b00000000000000000000000000010011 1
b00000000000000000000000000010100 2
b01000000000000000000000000000010 3
b10001111111111111111111111110111 4
b00000000000000000000000000010101 5
b01100000000000000000000000000010 6
b10100000000000000000000000000001 7
b01 8
19
1;
b00111111111111111111111111110111 <
b01100000000000000000000000010100 >
b00000000000000000000000000010100 @
b0110000000000000000000000000001000000000000000000000000000010101 A
b0100000000000000000000000000001000000000000000000000000000010100 C
b0101000000000000000000000000101010000000000000000000000000010100 E
b0010000000000000000000000000101100000000000000000000000000010101 G
b01000000000000000000000000010110 I
b11001111111111111111111111110110 J
b01000000000000000000000000000010 K
b00000000000000000000000000010100 L
b0000000000000000000000000000000011001111111111111111111111110110 O
b0000000000000000000000000000000000111111111111111111111111110111 Q
b01010000000000000000000000001010 S
b10000000000000000000000000010100 T
1W
#42
0W
#43
b00000000000000000000000000010110 $
b00000000000000000000000000010000 (
1)
1+
b01 ,
b00000000000000000000000000010101 -
b10100000000000000000000000000001 .
b01100000000000000000000000010100 /
b00000000000000000000000000010101 0
b00000000000000000000000000010100 1
b00000000000000000000000000010101 2
b01100000000000000000000000000010 3
b00111111111111111111111111110111 4
b00000000000000000000000000010110 5
b11000000000000000000000000000010 6
b10010000000000000000000000000001 7
b10 8
09
1:
b11001111111111111111111111110110 <
b00000000000000000000000000000000 >
b00000000000000000000000000010101 @
b1100000000000000000000000000001000000000000000000000000000010110 A
b0110000000000000000000000000001000000000000000000000000000010101 C
b0010000000000000000000000000101100000000000000000000000000010101 E
b0011000000000000000000000000101110000000000000000000000000010110 G
b01100000000000000000000000010111 I
b00011111111111111111111111110110 J
b01100000000000000000000000000010 K
b00000000000000000000000000010101 L
b0000000000000000000000000000000000011111111111111111111111110110 O
b0000000000000000000000000000000011001111111111111111111111110110 Q
b00100000000000000000000000001011 S
b00000000000000000000000000010101 T
1W
#44
0W
#45
b00000000000000000000000000010111 $
b00000000000000000000000000010001 (
0)
1*
b10 ,
b00000000000000000000000000010110 -
b10010000000000000000000000000001 .
b00000000000000000000000000000000 /
b00000000000000000000000000010110 0
b00000000000000000000000000010101 1
b00000000000000000000000000010110 2
b11000000000000000000000000000010 3
b11001111111111111111111111110110 4
b00000000000000000000000000010111 5
b11100000000000000000000000000010 6
b10110000000000000000000000000001 7
b11 8
19
0;
b00011111111111111111111111110110 <
b10110000000000000000000000010111 >
b00000000000000000000000000010110 @
b1110000000000000000000000000001000000000000000000000000000010111 A
b1100000000000000000000000000001000000000000000000000000000010110 C
b0011000000000000000000000000101110000000000000000000000000010110 E
b0110000000000000000000000000110000000000000000000000000000010111 G
b11000000000000000000000000011000 I
b10101111111111111111111111110101 J
b11000000000000000000000000000010 K
b00000000000000000000000000010110 L
1N
b0000000000000000000000000000000010101111111111111111111111110101 O
b0000000000000000000000000000000000011111111111111111111111110110 Q
b00110000000000000000000000001011 S
b10000000000000000000000000010110 T
1W
#46
0W
#47
b00000000000000000000000000011000 $
b00000000000000000000000000010010 (
1)
0+
b11 ,
b00000000000000000000000000010111 -
b10110000000000000000000000000001 .
b10110000000000000000000000010111 /
b00000000000000000000000000010111 0
b00000000000000000000000000010110 1
b00000000000000000000000000010111 2
b11100000000000000000000000000010 3
b00011111111111111111111111110110 4
b00000000000000000000000000011000 5
b00000000000000000000000000000011 6
b01000000000000000000000000000001 7
b00 8
09
0:
b10101111111111111111111111110101 <
1=
b01000000000000000000000000011001 >
b00000000000000000000000000010111 @
b0000000000000000000000000000001100000000000000000000000000011000 A
b1110000000000000000000000000001000000000000000000000000000010111 C
b0110000000000000000000000000110000000000000000000000000000010111 E
b0111000000000000000000000000110010000000000000000000000000011000 G
b11100000000000000000000000011001 I
b01011111111111111111111111110101 J
b11100000000000000000000000000010 K
b00000000000000000000000000010111 L
b0000000000000000000000000000000001011111111111111111111111110101 O
b0000000000000000000000000000000010101111111111111111111111110101 Q
b01100000000000000000000000001100 S
b00000000000000000000000000010111 T
1W
#48
0W
#49
b00000000000000000000000000011001 $
b00000000000000000000000000010011 (
0)
0*
b00 ,
b00000000000000000000000000011000 -
b01000000000000000000000000000001 .
b01000000000000000000000000011001 /
b00000000000000000000000000011000 0
b00000000000000000000000000010111 1
b00000000000000000000000000011000 2
b00000000000000000000000000000011 3
b10101111111111111111111111110101 4
b00000000000000000000000000011001 5
b00100000000000000000000000000011 6
b01100000000000000000000000000001 7
b01 8
19
1;
b01011111111111111111111111110101 <
b10100000000000000000000000011000 >
b00000000000000000000000000011000 @
b0010000000000000000000000000001100000000000000000000000000011001 A
b0000000000000000000000000000001100000000000000000000000000011000 C
b0111000000000000000000000000110010000000000000000000000000011000 E
b0000000000000000000000000000110110000000000000000000000000011001 G
b00000000000000000000000000011011 I
b11101111111111111111111111110100 J
b00000000000000000000000000000011 K
b00000000000000000000000000011000 L
b0000000000000000000000000000000011101111111111111111111111110100 O
b0000000000000000000000000000000001011111111111111111111111110101 Q
b01110000000000000000000000001100 S
b10000000000000000000000000011000 T
1W
#50
0W
#51
b00000000000000000000000000011010 $
b00000000000000000000000000010100 (
1)
1+
b01 ,
b00000000000000000000000000011001 -
b01100000000000000000000000000001 .
b10100000000000000000000000011000 /
b00000000000000000000000000011001 0
b00000000000000000000000000011000 1
b00000000000000000000000000011001 2
b00100000000000000000000000000011 3
b01011111111111111111111111110101 4
b00000000000000000000000000011010 5
b10000000000000000000000000000011 6
b01010000000000000000000000000001 7
b10 8
09
1:
b11101111111111111111111111110100 <
0=
b00000000000000000000000000000000 >
b00000000000000000000000000011001 @
b1000000000000000000000000000001100000000000000000000000000011010 A
b0010000000000000000000000000001100000000000000000000000000011001 C
b0000000000000000000000000000110110000000000000000000000000011001 E
b0001000000000000000000000000111000000000000000000000000000011010 G
b00100000000000000000000000011100 I
b01111111111111111111111111110100 J
b00100000000000000000000000000011 K
b00000000000000000000000000011001 L
b0000000000000000000000000000000001111111111111111111111111110100 O
b0000000000000000000000000000000011101111111111111111111111110100 Q
b00000000000000000000000000001101 S
b10000000000000000000000000011001 T
1W
#52
0W
